[
  {
    "codigo": "123456",
    "descricao": "PRODUTO 1",
    "finalidade": "REVENDA",
    "codigoBarra" : 2,
    "dataInclusao" : "21/05/2018",
    "dataAlteracao" : "21/05/2018",
    "usuarioInclusao" : "DESENVOLVEDOR 3",
    "usuarioAlteracao" : "DESENVOLVEDOR 3",
    "status" : "ATIVO"

  },
  {
    "codigo": "654321",
    "descricao": "PRODUTO 2",
    "finalidade": "REVENDA",
    "codigoBarra" : 2,
    "dataInclusao" : "22/05/2018",
    "dataAlteracao" : "21/05/2018",
    "usuarioInclusao" : "DESENVOLVEDOR 3",
    "usuarioAlteracao" : "DESENVOLVEDOR 3",
    "status" : "ATIVO"
  },
  {
    "codigo": "123789",
    "descricao": "PRODUTO 3",
    "finalidade": "REVENDA",
    "codigoBarra" : 2,
    "dataInclusao" : "23/05/2018",
    "dataAlteracao" : "21/05/2018",
    "usuarioInclusao" : "DESENVOLVEDOR 3",
    "usuarioAlteracao" : "DESENVOLVEDOR 3",
    "status" : "ATIVO"
  },
  {
    "codigo": "987321",
    "descricao": "PRODUTO 4",
    "finalidade": "REVENDA",
    "codigoBarra" : 2,
    "dataInclusao" : "23/05/2018",
    "dataAlteracao" : "21/05/2018",
    "usuarioInclusao" : "DESENVOLVEDOR 3",
    "usuarioAlteracao" : "DESENVOLVEDOR 3",
    "status" : "ATIVO"
  },
  {
    "codigo": "654987",
    "descricao": "PRODUTO 5",
    "finalidade": "REVENDA",
    "codigoBarra" : 10,
    "dataInclusao" : "24/05/2018",
    "dataAlteracao" : "21/05/2018",
    "usuarioInclusao" : "DESENVOLVEDOR 3",
    "usuarioAlteracao" : "DESENVOLVEDOR 3",
    "status" : "ATIVO"
  },
  {
    "codigo": "123456",
    "descricao": "PRODUTO 6",
    "finalidade": "REVENDA",
    "codigoBarra" : 4,
    "dataInclusao" : "26/05/2018",
    "dataAlteracao" : "21/05/2018",
    "usuarioInclusao" : "DESENVOLVEDOR 3",
    "usuarioAlteracao" : "DESENVOLVEDOR 3",
    "status" : "ATIVO"
  },
  {
    "codigo": "123456",
    "descricao": "PRODUTO 7",
    "finalidade": "REVENDA",
    "codigoBarra" : 3,
    "dataInclusao" : "27/05/2018",
    "dataAlteracao" : "21/05/2018",
    "usuarioInclusao" : "DESENVOLVEDOR 3",
    "usuarioAlteracao" : "DESENVOLVEDOR 3",
    "status" : "ATIVO"
  },
  {
    "codigo": "123456",
    "descricao": "PRODUTO 8",
    "finalidade": "REVENDA",
    "codigoBarra" : 2,
    "dataInclusao" : "21/05/2018",
    "dataAlteracao" : "21/05/2018",
    "usuarioInclusao" : "DESENVOLVEDOR 3",
    "usuarioAlteracao" : "DESENVOLVEDOR 3",
    "status" : "ATIVO"
  },
  {
    "codigo": "123456",
    "descricao": "PRODUTO 9",
    "finalidade": "REVENDA",
    "codigoBarra" : 2,
    "dataInclusao" : "21/05/2018",
    "dataAlteracao" : "21/05/2018",
    "usuarioInclusao" : "DESENVOLVEDOR 3",
    "usuarioAlteracao" : "DESENVOLVEDOR 3",
    "status" : "ATIVO"
  },
  {
    "codigo": "123456",
    "descricao": "PRODUTO 10",
    "finalidade": "REVENDA",
    "codigoBarra" : 2,
    "dataInclusao" : "21/05/2018",
    "dataAlteracao" : "21/05/2018",
    "usuarioInclusao" : "DESENVOLVEDOR 3",
    "usuarioAlteracao" : "DESENVOLVEDOR 3",
    "status" : "ATIVO"
  }

  ,
  {
    "codigo": "123456",
    "descricao": "PRODUTO 11 - PAGINA 2",
    "finalidade": "REVENDA",
    "codigoBarra" : 2,
    "dataInclusao" : "21/05/2018",
    "dataAlteracao" : "21/05/2018",
    "usuarioInclusao" : "DESENVOLVEDOR 3",
    "usuarioAlteracao" : "DESENVOLVEDOR 3",
    "status" : "ATIVO"
  },
  {
    "codigo": "123456",
    "descricao": "PRODUTO 1",
    "finalidade": "REVENDA",
    "codigoBarra" : 2,
    "dataInclusao" : "21/05/2018",
    "dataAlteracao" : "21/05/2018",
    "usuarioInclusao" : "DESENVOLVEDOR 3",
    "usuarioAlteracao" : "DESENVOLVEDOR 3",
    "status" : "ATIVO"

  },
  {
  "codigo": "654321",
  "descricao": "PRODUTO 2",
  "finalidade": "REVENDA",
  "codigoBarra" : 2,
  "dataInclusao" : "21/05/2018",
  "dataAlteracao" : "21/05/2018",
  "usuarioInclusao" : "DESENVOLVEDOR 3",
  "usuarioAlteracao" : "DESENVOLVEDOR 3",
  "status" : "ATIVO"
  },
  {
  "codigo": "123789",
  "descricao": "PRODUTO 3",
  "finalidade": "REVENDA",
  "codigoBarra" : 2,
  "dataInclusao" : "21/05/2018",
  "dataAlteracao" : "21/05/2018",
  "usuarioInclusao" : "DESENVOLVEDOR 3",
  "usuarioAlteracao" : "DESENVOLVEDOR 3",
  "status" : "ATIVO"
  },
  {
  "codigo": "987321",
  "descricao": "PRODUTO 4",
  "finalidade": "REVENDA",
  "codigoBarra" : 2,
  "dataInclusao" : "21/05/2018",
  "dataAlteracao" : "21/05/2018",
  "usuarioInclusao" : "DESENVOLVEDOR 3",
  "usuarioAlteracao" : "DESENVOLVEDOR 3",
  "status" : "ATIVO"
  },
  {
  "codigo": "654987",
  "descricao": "PRODUTO 5",
  "finalidade": "REVENDA",
  "codigoBarra" : 2,
  "dataInclusao" : "21/05/2018",
  "dataAlteracao" : "21/05/2018",
  "usuarioInclusao" : "DESENVOLVEDOR 3",
  "usuarioAlteracao" : "DESENVOLVEDOR 3",
  "status" : "ATIVO"
  },
  {
  "codigo": "123456",
  "descricao": "PRODUTO 6",
  "finalidade": "REVENDA",
  "codigoBarra" : 2,
  "dataInclusao" : "21/05/2018",
  "dataAlteracao" : "21/05/2018",
  "usuarioInclusao" : "DESENVOLVEDOR 3",
  "usuarioAlteracao" : "DESENVOLVEDOR 3",
  "status" : "ATIVO"
  },
  {
  "codigo": "123456",
  "descricao": "PRODUTO 7",
  "finalidade": "REVENDA",
  "codigoBarra" : 2,
  "dataInclusao" : "21/05/2018",
  "dataAlteracao" : "21/05/2018",
  "usuarioInclusao" : "DESENVOLVEDOR 3",
  "usuarioAlteracao" : "DESENVOLVEDOR 3",
  "status" : "ATIVO"
  },
  {
  "codigo": "123456",
  "descricao": "PRODUTO 8",
  "finalidade": "REVENDA",
  "codigoBarra" : 2,
  "dataInclusao" : "21/05/2018",
  "dataAlteracao" : "21/05/2018",
  "usuarioInclusao" : "DESENVOLVEDOR 3",
  "usuarioAlteracao" : "DESENVOLVEDOR 3",
  "status" : "ATIVO"
  },
  {
  "codigo": "123456",
  "descricao": "PRODUTO 9",
  "finalidade": "REVENDA",
  "codigoBarra" : 2,
  "dataInclusao" : "21/05/2018",
  "dataAlteracao" : "21/05/2018",
  "usuarioInclusao" : "DESENVOLVEDOR 3",
  "usuarioAlteracao" : "DESENVOLVEDOR 3",
  "status" : "ATIVO"
  },
  {
  "codigo": "123456",
  "descricao": "PRODUTO 10",
  "finalidade": "REVENDA",
  "codigoBarra" : 2,
  "dataInclusao" : "21/05/2018",
  "dataAlteracao" : "21/05/2018",
  "usuarioInclusao" : "DESENVOLVEDOR 3",
  "usuarioAlteracao" : "DESENVOLVEDOR 3",
  "status" : "ATIVO"
  }

  ,
  {
  "codigo": "123456",
  "descricao": "PRODUTO 11 - PAGINA 2",
  "finalidade": "REVENDA",
  "codigoBarra" : 2,
  "dataInclusao" : "21/05/2018",
  "dataAlteracao" : "21/05/2018",
  "usuarioInclusao" : "DESENVOLVEDOR 3",
  "usuarioAlteracao" : "DESENVOLVEDOR 3",
  "status" : "ATIVO"
  },
  {
    "codigo": "123456",
    "descricao": "PRODUTO 1",
    "finalidade": "REVENDA",
    "codigoBarra" : 2,
    "dataInclusao" : "21/05/2018",
    "dataAlteracao" : "21/05/2018",
    "usuarioInclusao" : "DESENVOLVEDOR 3",
    "usuarioAlteracao" : "DESENVOLVEDOR 3",
    "status" : "ATIVO"

  },
  {
  "codigo": "654321",
  "descricao": "PRODUTO 2",
  "finalidade": "REVENDA",
  "codigoBarra" : 2,
  "dataInclusao" : "21/05/2018",
  "dataAlteracao" : "21/05/2018",
  "usuarioInclusao" : "DESENVOLVEDOR 3",
  "usuarioAlteracao" : "DESENVOLVEDOR 3",
  "status" : "ATIVO"
  },
  {
  "codigo": "123789",
  "descricao": "PRODUTO 3",
  "finalidade": "REVENDA",
  "codigoBarra" : 2,
  "dataInclusao" : "21/05/2018",
  "dataAlteracao" : "21/05/2018",
  "usuarioInclusao" : "DESENVOLVEDOR 3",
  "usuarioAlteracao" : "DESENVOLVEDOR 3",
  "status" : "ATIVO"
  },
  {
  "codigo": "987321",
  "descricao": "PRODUTO 4",
  "finalidade": "REVENDA",
  "codigoBarra" : 2,
  "dataInclusao" : "21/05/2018",
  "dataAlteracao" : "21/05/2018",
  "usuarioInclusao" : "DESENVOLVEDOR 3",
  "usuarioAlteracao" : "DESENVOLVEDOR 3",
  "status" : "ATIVO"
  },
  {
  "codigo": "654987",
  "descricao": "PRODUTO 5",
  "finalidade": "REVENDA",
  "codigoBarra" : 2,
  "dataInclusao" : "21/05/2018",
  "dataAlteracao" : "21/05/2018",
  "usuarioInclusao" : "DESENVOLVEDOR 3",
  "usuarioAlteracao" : "DESENVOLVEDOR 3",
  "status" : "ATIVO"
  },
  {
  "codigo": "123456",
  "descricao": "PRODUTO 6",
  "finalidade": "REVENDA",
  "codigoBarra" : 2,
  "dataInclusao" : "21/05/2018",
  "dataAlteracao" : "21/05/2018",
  "usuarioInclusao" : "DESENVOLVEDOR 3",
  "usuarioAlteracao" : "DESENVOLVEDOR 3",
  "status" : "ATIVO"
  },
  {
  "codigo": "123456",
  "descricao": "PRODUTO 7",
  "finalidade": "REVENDA",
  "codigoBarra" : 2,
  "dataInclusao" : "21/05/2018",
  "dataAlteracao" : "21/05/2018",
  "usuarioInclusao" : "DESENVOLVEDOR 3",
  "usuarioAlteracao" : "DESENVOLVEDOR 3",
  "status" : "ATIVO"
  },
  {
  "codigo": "123456",
  "descricao": "PRODUTO 8",
  "finalidade": "REVENDA",
  "codigoBarra" : 2,
  "dataInclusao" : "21/05/2018",
  "dataAlteracao" : "21/05/2018",
  "usuarioInclusao" : "DESENVOLVEDOR 3",
  "usuarioAlteracao" : "DESENVOLVEDOR 3",
  "status" : "ATIVO"
  },
  {
  "codigo": "123456",
  "descricao": "PRODUTO 9",
  "finalidade": "REVENDA",
  "codigoBarra" : 2,
  "dataInclusao" : "21/05/2018",
  "dataAlteracao" : "21/05/2018",
  "usuarioInclusao" : "DESENVOLVEDOR 3",
  "usuarioAlteracao" : "DESENVOLVEDOR 3",
  "status" : "ATIVO"
  },
  {
  "codigo": "123456",
  "descricao": "PRODUTO 10",
  "finalidade": "REVENDA",
  "codigoBarra" : 2,
  "dataInclusao" : "21/05/2018",
  "dataAlteracao" : "21/05/2018",
  "usuarioInclusao" : "DESENVOLVEDOR 3",
  "usuarioAlteracao" : "DESENVOLVEDOR 3",
  "status" : "ATIVO"
  }

  ,
  {
  "codigo": "123456",
  "descricao": "PRODUTO 11 - PAGINA 2",
  "finalidade": "REVENDA",
  "codigoBarra" : 2,
  "dataInclusao" : "21/05/2018",
  "dataAlteracao" : "21/05/2018",
  "usuarioInclusao" : "DESENVOLVEDOR 3",
  "usuarioAlteracao" : "DESENVOLVEDOR 3",
  "status" : "ATIVO"
  },
  {
    "codigo": "123456",
    "descricao": "PRODUTO 1",
    "finalidade": "REVENDA",
    "codigoBarra" : 2,
    "dataInclusao" : "21/05/2018",
    "dataAlteracao" : "21/05/2018",
    "usuarioInclusao" : "DESENVOLVEDOR 3",
    "usuarioAlteracao" : "DESENVOLVEDOR 3",
    "status" : "ATIVO"

  },
  {
  "codigo": "654321",
  "descricao": "PRODUTO 2",
  "finalidade": "REVENDA",
  "codigoBarra" : 2,
  "dataInclusao" : "21/05/2018",
  "dataAlteracao" : "21/05/2018",
  "usuarioInclusao" : "DESENVOLVEDOR 3",
  "usuarioAlteracao" : "DESENVOLVEDOR 3",
  "status" : "ATIVO"
  },
  {
  "codigo": "123789",
  "descricao": "PRODUTO 3",
  "finalidade": "REVENDA",
  "codigoBarra" : 2,
  "dataInclusao" : "21/05/2018",
  "dataAlteracao" : "21/05/2018",
  "usuarioInclusao" : "DESENVOLVEDOR 3",
  "usuarioAlteracao" : "DESENVOLVEDOR 3",
  "status" : "ATIVO"
  }
]
